# Blender MTL File: 'caixote.blend'
# Material Count: 1

newmtl Material
Ns 96.078431
Ka 0.000000 0.000000 0.000000
Kd 0.322540 0.322540 0.322540
Ks 0.000000 0.000000 0.000000
Ni 1.000000
d 1.000000
illum 1
map_Bump caixote_uv_pronto.png
map_Kd caixote_uv_pronto.png
